scipy==1.2.1
numpy==1.16.1
pandas==0.24.1
scikit-learn==0.20.2
xlsxwriter==1.1.4
xlrd==1.2.0
pyarrow==0.12.0
matplotlib==3.0.2
lightgbm==2.3.1
pymp-pypi==0.4.2
gcsfs==0.2.0
pillow==6.0.0
oyaml==0.9
google-api-python-client
google-auth-httplib2
google-auth-oauthlib
google-cloud-pubsub==0.39.1
google-cloud-storage==1.20.0
oauth2client
gspread